{
  "getAddCommentForm": {
    "controller": "ContentController",
    "action": "add",
    "actionMethod": "getAddCommentForm",
    "method": "GET",
    "uriMask": "topics/{id:.*}/comments/",
    "comment": ""
  },
  "getAddCommentFormAction": {
    "controller": "ContentController",
    "action": "add",
    "actionMethod": "getAddCommentFormAction",
    "method": "GET",
    "uriMask": "topics/{topicId:.*}/comments/{commentId:\\d+}",
    "comment": "Example: //topics/tyui-yuio-qw078/comments/150"
  },
  "getComment": {
    "controller": "ContentController",
    "action": "get",
    "actionMethod": "getComment",
    "method": "GET",
    "uriMask": "topics/{id:.*}/comments/{commentId:\\d+}",
    "comment": ""
  },
  "addComment": {
    "controller": "ContentController",
    "action": "add",
    "actionMethod": "addComment",
    "method": "POST",
    "uriMask": "topics/{id:.*}/comments",
    "comment": ""
  },
  "getCommentAdmin": {
    "controller": "Admin\\ContentController",
    "action": "get",
    "actionMethod": "getComment",
    "method": "GET",
    "uriMask": "topics/{id:.*}/comments/{commentId:\\d+}",
    "comment": ""
  }

}

